…
6. How many distinct wolf populations are included in this study? Mae a new object that restricts the data to the wolf populations in the lower 48 US states.  

```r
wolves_distinct <- filter(wolves, pop %in% c("MT", "YNP", "GTNP", "SNF", "MI"))
wolves_distinct
```

```
## # A tibble: 988 × 23
##    pop    year age.cat sex   color   lat  long habitat human pop.density
##    <chr> <dbl> <chr>   <chr> <chr> <dbl> <dbl>   <dbl> <dbl>       <dbl>
##  1 GTNP   2012 P       M     G      43.8 -111.  10375. 3924.        34.0
##  2 GTNP   2012 P       F     G      43.8 -111.  10375. 3924.        34.0
##  3 GTNP   2012 P       F     G      43.8 -111.  10375. 3924.        34.0
##  4 GTNP   2012 P       M     B      43.8 -111.  10375. 3924.        34.0
##  5 GTNP   2013 A       F     G      43.8 -111.  10375. 3924.        34.0
##  6 GTNP   2013 A       M     G      43.8 -111.  10375. 3924.        34.0
##  7 GTNP   2013 P       M     G      43.8 -111.  10375. 3924.        34.0
##  8 GTNP   2013 P       M     G      43.8 -111.  10375. 3924.        34.0
##  9 GTNP   2013 P       M     G      43.8 -111.  10375. 3924.        34.0
## 10 GTNP   2013 P       F     G      43.8 -111.  10375. 3924.        34.0
## # ℹ 978 more rows
## # ℹ 13 more variables: pack.size <dbl>, standard.habitat <dbl>,
## #   standard.human <dbl>, standard.pop <dbl>, standard.packsize <dbl>,
## #   standard.latitude <dbl>, standard.longitude <dbl>, cav.binary <dbl>,
## #   cdv.binary <dbl>, cpv.binary <dbl>, chv.binary <dbl>, neo.binary <dbl>,
## #   toxo.binary <dbl>
```
…
