…
```r
UC_admit %>%
  group_by(Ethnicity)
```

```
## # A tibble: 2,160 × 6
## # Groups:   Ethnicity [8]
##    Campus Academic_Yr Category   Ethnicity        `Perc FR` FilteredCountFR
##    <chr>        <dbl> <chr>      <chr>            <chr>               <dbl>
##  1 Davis         2019 Applicants International    21.16%              16522
##  2 Davis         2019 Applicants Unknown          2.51%                1959
##  3 Davis         2019 Applicants White            18.39%              14360
##  4 Davis         2019 Applicants Asian            30.76%              24024
##  5 Davis         2019 Applicants Chicano/Latino   22.44%              17526
##  6 Davis         2019 Applicants American Indian  0.35%                 277
##  7 Davis         2019 Applicants African American 4.39%                3425
##  8 Davis         2019 Applicants All              100.00%             78093
##  9 Davis         2018 Applicants International    19.87%              15507
## 10 Davis         2018 Applicants Unknown          2.83%                2208
## # ℹ 2,150 more rows
```
…
