…
2. Use `janitor` to rename the columns and make them easier to use. As part of this cleaning step, change `country`, `isscaap_group_number`, `asfis_species_number`, and `fao_major_fishing_area` to data class factor. 

```r
fisheries_new <- fisheries %>%
  clean_names()
fisheries_new
```

```
## # A tibble: 17,692 × 71
##    country common_name               isscaap_group_number isscaap_taxonomic_gr…¹
##    <chr>   <chr>                                    <dbl> <chr>                 
##  1 Albania Angelsharks, sand devils…                   38 Sharks, rays, chimaer…
##  2 Albania Atlantic bonito                             36 Tunas, bonitos, billf…
##  3 Albania Barracudas nei                              37 Miscellaneous pelagic…
##  4 Albania Blue and red shrimp                         45 Shrimps, prawns       
##  5 Albania Blue whiting(=Poutassou)                    32 Cods, hakes, haddocks 
##  6 Albania Bluefish                                    37 Miscellaneous pelagic…
##  7 Albania Bogue                                       33 Miscellaneous coastal…
##  8 Albania Caramote prawn                              45 Shrimps, prawns       
##  9 Albania Catsharks, nursehounds n…                   38 Sharks, rays, chimaer…
## 10 Albania Common cuttlefish                           57 Squids, cuttlefishes,…
## # ℹ 17,682 more rows
## # ℹ abbreviated name: ¹​isscaap_taxonomic_group
## # ℹ 67 more variables: asfis_species_number <chr>, asfis_species_name <chr>,
## #   fao_major_fishing_area <dbl>, measure <chr>, x1950 <chr>, x1951 <chr>,
## #   x1952 <chr>, x1953 <chr>, x1954 <chr>, x1955 <chr>, x1956 <chr>,
## #   x1957 <chr>, x1958 <chr>, x1959 <chr>, x1960 <chr>, x1961 <chr>,
## #   x1962 <chr>, x1963 <chr>, x1964 <chr>, x1965 <chr>, x1966 <chr>, …
```
…
fisheries_tidy$catch <- as.numeric(fisheries_tidy$catch)
```

3. How many countries are represented in the data? Provide a count and list their names.

```r
fisheries_tidy %>% 
  group_by(country) %>% 
  summarize(n=n(), .groups= 'keep')
```

```
## # A tibble: 203 × 2
## # Groups:   country [203]
##    country                 n
##    <fct>               <int>
##  1 Albania               934
##  2 Algeria              1561
##  3 American Samoa        556
##  4 Angola               2119
##  5 Anguilla              129
##  6 Antigua and Barbuda   356
##  7 Argentina            3403
##  8 Aruba                 172
##  9 Australia            8183
## 10 Bahamas               423
## # ℹ 193 more rows
```

4. Refocus the data only to include country, isscaap_taxonomic_group, asfis_species_name, asfis_species_number, year, catch.

```r
fisheries_re <- select(fisheries_tidy, "country", "isscaap_taxonomic_group", "asfis_species_name", "asfis_species_number", "year", "catch")
fisheries_re
```

```
## # A tibble: 376,771 × 6
##    country isscaap_taxonomic_group asfis_species_name asfis_species_number  year
##    <fct>   <chr>                   <chr>              <fct>                <dbl>
##  1 Albania Sharks, rays, chimaeras Squatinidae        10903XXXXX            1995
##  2 Albania Sharks, rays, chimaeras Squatinidae        10903XXXXX            1996
##  3 Albania Sharks, rays, chimaeras Squatinidae        10903XXXXX            1997
##  4 Albania Sharks, rays, chimaeras Squatinidae        10903XXXXX            1998
##  5 Albania Sharks, rays, chimaeras Squatinidae        10903XXXXX            1999
##  6 Albania Sharks, rays, chimaeras Squatinidae        10903XXXXX            2000
##  7 Albania Sharks, rays, chimaeras Squatinidae        10903XXXXX            2001
##  8 Albania Sharks, rays, chimaeras Squatinidae        10903XXXXX            2002
##  9 Albania Sharks, rays, chimaeras Squatinidae        10903XXXXX            2003
## 10 Albania Sharks, rays, chimaeras Squatinidae        10903XXXXX            2004
## # ℹ 376,761 more rows
## # ℹ 1 more variable: catch <dbl>
```
…
```
## `summarise()` has grouped output by 'country'. You can override using the
## `.groups` argument.
```

```
## # A tibble: 37 × 2
##    country               catch_total
##    <fct>                       <dbl>
##  1 Morocco                      7470
##  2 Spain                        3336
##  3 Russian Federation           1639
##  4 Ukraine                       976
##  5 France                        885
##  6 Portugal                      762
##  7 Greece                        528
##  8 Italy                         494
##  9 Denmark                       477
## 10 Serbia and Montenegro         429
## # ℹ 27 more rows
```
…
```
## `summarise()` has grouped output by 'country'. You can override using the
## `.groups` argument.
```

```
## # A tibble: 122 × 2
##    country                  catch_total
##    <fct>                          <dbl>
##  1 China                           8349
##  2 Peru                            3414
##  3 Japan                           3142
##  4 Korea, Republic of              3014
##  5 Chile                           2772
##  6 United States of America        2243
##  7 Indonesia                       1588
##  8 Taiwan Province of China        1240
##  9 France                           855
## 10 Spain                            837
## # ℹ 112 more rows
```
…
```
## `summarise()` has grouped output by 'asfis_species_name'. You can override
## using the `.groups` argument.
```

```
## # A tibble: 1,471 × 2
##    asfis_species_name    total_catch
##    <chr>                       <dbl>
##  1 Theragra chalcogramma       41069
##  2 Engraulis ringens           35523
##  3 Trichiurus lepturus         29286
##  4 Clupea harengus             27857
##  5 Katsuwonus pelamis          22521
##  6 Scomber japonicus           12524
##  7 Gadus morhua                12272
##  8 Scomber scombrus            10410
##  9 Decapterus spp               9971
## 10 Natantia                     9643
## # ℹ 1,461 more rows
```
…
